Row,z_1,z_2
0,1.327468000854538,-2.485099607423926
1,1.710157953219015,-1.7359520940663273
2,1.7173280840064178,-2.3543212955828117
3,,
4,1.144642133143538,-1.6499575346479958
5,0.48763791169741205,-2.4468822316549943
6,0.05594151488868709,-2.344910782607119
