Row,z_1,z_2
0,0.6081280152070463,-2.2767931564015957
1,0.09104705578656219,-2.2859498768771678
2,-0.39649330219776086,-1.9945828519877802
3,-0.8008825684268536,-1.7702227441281857
4,-1.3958283941042438,-1.1836755246345247
5,-1.5969856378384903,-0.9851167136617984
6,-1.667072535159829,-0.9264274931751778
7,-1.8569814789747032,-0.41089941413665915
8,-1.1818230401586083,0.6412790384811421
9,-0.07873866160669007,0.853855661309944
10,0.9894752371553148,0.6147766332628536
11,1.349723792493355,0.1631950338840167
12,1.6930006117704477,-0.17469608439918036
13,1.9132467398793196,-0.4804182401211216
14,2.165374787857234,-0.7103904352292707
15,2.264883441706795,-1.109368518292018
16,1.8932942443638816,-1.57734221190869
17,1.615654949590931,-1.714136549471662
18,1.5327548963861821,-1.7392408453919252
19,1.0728979054408043,-2.1651646371175537
20,,
21,-1.8569814789747032,-0.41089941413665915
22,-1.8083548143175752,-0.8011002537816264
23,-1.9440430417077232,-0.5656579487491339
24,,
25,1.349723792493355,0.1631950338840167
26,1.2602727437999093,0.3316119756009371
27,1.291958342834263,0.3035442544204768
28,,
29,-1.6888399860884409,0.45780389097864826
30,-1.8469401352198909,0.03877968867046331
31,-1.7973769911536825,0.3082112257464369
