Row,z_1,z_2
0,0.6081280152070463,-2.2767931564015957
1,0.09104705578656219,-2.2859498768771678
2,-0.39649330219776086,-1.9945828519877802
3,-0.8008825684268536,-1.7702227441281857
4,-1.286576101415304,-1.3761689399906558
5,-1.3958283941042438,-1.1836755246345247
6,-1.4240694079198732,-0.6596772909278282
7,-1.1060195292335155,-0.4147879867846384
8,-0.7193101162059123,-0.05075249986854946
9,1.349723792493355,0.1631950338840167
10,1.6930006117704477,-0.17469608439918036
11,1.9132467398793196,-0.4804182401211216
12,2.165374787857234,-0.7103904352292707
13,2.264883441706795,-1.109368518292018
14,1.8932942443638816,-1.57734221190869
15,1.615654949590931,-1.714136549471662
16,1.5327548963861821,-1.7392408453919252
17,1.0728979054408043,-2.1651646371175537
