Row,z_1,z_2
0,0.6081280152070463,-2.2767931564015957
1,0.4586879251220931,-2.3258817713398576
2,0.09104705578656219,-2.2859498768771678
3,-0.12731208420012072,-2.021458992437626
4,-0.30025313284360244,-1.9028238399063626
5,-1.2709283028689224,-0.562192509946327
6,-1.4533369955734636,-0.33439934398359966
7,0.724959217827819,0.9433529041968682
8,1.259807608012246,0.5476864253036221
9,1.291958342834263,0.3035442544204768
10,1.349723792493355,0.1631950338840167
11,1.6930006117704477,-0.17469608439918036
12,1.9132467398793196,-0.4804182401211216
13,2.165374787857234,-0.7103904352292707
14,2.264883441706795,-1.109368518292018
15,1.8932942443638816,-1.57734221190869
16,1.59985529614199,-1.938785381974714
17,1.525920081604304,-1.963300178576372
18,1.4738203636372362,-1.980424093309138
19,1.1408101210902295,-2.139549262973538
20,1.088997497555311,-2.1590921349670507
21,1.0728979054408043,-2.1651646371175537
22,,
23,1.8932942443638816,-1.57734221190869
24,1.7009947633036282,-1.9003293720106673
25,1.6410372351583336,-1.9232633365743064
