Row,z_1,z_2
1,-0.4898388501392108,0.26802697496803524
2,0.9176919592008227,-1.7948377962849273
3,-0.5003535002123797,-0.45481079179074985
4,2.3143185631166303,-2.3691023947162018
5,-0.11330392528482786,-0.7614275586616165
6,1.2160471551569447,-0.4663151746387951
7,-1.8581077213009471,3.4234954101858928
8,-2.449395595097075,1.9894586708846251
9,0.6177127355001787,-0.8969051251231632
10,-2.2946704611783018,1.6826974412051137
11,-0.9650013173894537,-0.16575971184133895
12,0.5348442575106374,1.089192992935502
13,-1.1368464260542002,0.440978356161146
14,1.1934279310726799,-1.4510307677535554
15,-0.7463758457449126,1.8173417580695845
16,-2.6024463334296213,2.7669899871662342
17,-1.7792585925234243,0.7827869553501307
18,-2.539617666168079,1.5580166726297835
19,-1.304803926332221,1.158466063341993
20,-2.1698950215480166,2.4768555145372932
21,-0.18499580716952285,1.7965577198887805
22,-0.6146969563049066,-1.0287750926407193
23,1.1006520273969573,-0.7289943734457625
24,-2.45924989009012,0.48753191011722874
25,-0.3654581608918854,0.07083978264077666
26,-2.0402849138288404,2.1967764755987043
27,-1.0511621283257087,0.11489935948702008
28,2.349489367987906,-1.8016921729310376
29,-1.1378059073518572,0.5971490410351709
30,-1.862421912662039,0.3056359650656082
31,-2.066085516915448,1.8192683070866422
32,0.5590411113045258,-0.19691455825680432
33,2.3502644732245708,-1.6583688826263172
34,1.1709220603126784,-1.1844753447797027
35,-2.237964382835282,2.2288730107782655
36,0.8294774761113377,-0.5998579056667973
37,-2.443049577390401,0.9528395353307626
38,-1.1645486631900883,1.8207443030730432
39,-2.1201834123524006,3.025241610075831
40,-0.6767588205287047,0.9889625549962596
41,-2.1241894239515755,2.644766386745791
42,-2.4089898912268497,2.4162455526052184
43,0.6797121324801956,-0.5651138572045179
44,0.9231261068933244,-1.1343265301413508
45,-2.1486112245347786,2.8310462873690527
46,0.9811182878316602,-1.344057476253998
47,-1.5283464852128228,0.3660707446966217
48,2.2249301729234476,-1.9654507646246715
49,-2.5013221000011323,2.582807625223184
50,1.3969563426568863,-1.670026137972503
51,2.32304316747457,-1.7097408741865392
52,2.3127681691630575,-1.7888581540391661
53,2.1316426673244337,-1.5016779165963323
54,1.5287200578397724,-1.608571131218646
55,-2.1899980472043272,2.853954344844025
56,2.2431345851811026,-2.4778804498848865
57,0.8880079940895218,-0.10439150741698588
58,-2.5318069088978965,0.566803683750839
59,-2.555382134544187,2.0830746356486944
60,1.2476785443645138,-1.3499945126433697
61,1.6673196066419838,-2.6894697722676213
62,-1.2309325769787298,0.3822795928976337
63,1.0306104864366892,-1.0062449002401403
64,0.16827809612615802,0.9437510012314323
65,-1.8455863490129591,0.9573753074643394
66,0.6853443927327245,-1.1445507002381448
67,-1.9862176559138232,1.3929765105428196
68,-2.745406986950276,0.7694911650504779
69,2.406553608198046,-1.886585994743276
70,-1.2230129059106545,0.6056300250450087
71,-2.056661004748226,3.4516355733243143
72,-0.16938504881280522,2.00685327335311
73,-0.7106454234842662,-0.5197875673865676
74,-1.2209875981083267,-0.28133977068214877
75,1.8779950156778775,-2.12928590711405
76,1.6552858933279833,-2.034318387610844
77,-0.30152522751730776,-1.1076906250779681
78,1.1670530755180488,-0.31544460330432694
79,1.0060467994785498,-1.7800220461758751
80,2.2057825843959478,-1.9897114409180563
81,1.9513460345321285,-1.707450516609016
82,1.7182955246507405,-2.790765775627346
83,-0.25475699595676676,0.6428049578001424
84,2.212051206747759,-2.3401789136082387
85,-1.0359079348838336,-0.005286243756378726
86,1.4744948674080642,-0.3716501993875296
87,-2.1186578266877416,0.25096149447139066
88,1.9556757080087603,-1.7451781964148187
89,-0.23159175572975202,-0.00574156978557541
90,2.22017203954263,-2.021506084917381
91,2.1410936620565866,-2.4203629866300336
92,-1.5698089423478678,0.5885591756373119
93,-0.5283352313157735,-0.4482936036777748
94,-2.3054495900255376,2.9079979950478094
95,0.22648650499858125,-0.4796603917299871
96,-1.7613253125333928,1.1803443726275984
97,1.823554896694912,-1.8093728708047654
98,2.3768269926191614,-1.9161794269921093
99,1.1828347125070917,-0.72329561535558
100,-1.5955951115292457,0.3630070518220107
101,0.7946072119611745,-0.17352403416292653
102,-0.14798545612973474,-0.41057594786033436
103,1.146965419621578,-1.7886981397727897
104,2.3907839320206183,-1.948435160623772
105,0.8520146564869661,-1.0966478346237438
106,1.3628685527530322,-1.6268952318654666
107,0.9964696192942998,-1.3486313062280832
108,-0.21599782674120843,0.1523274370802952
109,1.7738030960012412,-0.1987355846300069
110,-2.0304345892389875,3.2533300049586886
111,0.021822087299550135,0.6093850326798613
112,0.18937242695309267,-0.42636290500888535
113,2.1563294003472833,-1.7665349859338593
114,1.042324655657762,-1.1516113508989396
115,0.053382007684632415,1.7386277985933418
116,-1.0558513048014166,-0.15755527404840486
117,-2.408699121824728,1.907664531370151
118,1.1229841251599912,-1.6171231678474653
119,2.1568372703783467,-1.8877297805783542
120,2.205384218019796,-1.8782323377305867
121,0.27864947908962673,-0.3074841101098169
122,0.546430670555182,0.9059852910926719
123,1.9381081407086953,-1.4321877290174967
124,-0.17682178994469272,-0.49771960095813755
125,-2.377821572271445,3.0439479918692665
126,-1.2998013900782501,2.8879825541311677
127,-1.290330542351724,0.770992033740049
128,1.781403934588689,-1.3848291326720648
129,-1.869605940084952,0.4335742049604998
130,-1.9864513356067004,2.0109363833584344
131,-0.7221647210825529,1.4744286796443244
132,-1.0951675200106075,-0.3863315367452662
133,0.8199767029648685,-0.057044673843296596
134,-0.5573206920750925,-0.33309572299077334
135,2.26287650450928,-0.4892163783713663
136,-1.027417568785218,-0.017518899256693088
137,1.7272996416456756,-1.3141404527700449
138,2.189617811882061,-1.8633008319772149
139,-1.276757300357631,1.0893040104614085
140,0.30553380038766786,0.8422765365314818
141,0.10898692753691823,0.7624367462574216
142,-0.981844235769179,0.13391594003761642
143,2.0114065249516324,-1.6617962783006872
144,-2.2101048166315205,2.302315054546791
145,-1.8739879560381763,1.9056199777017357
146,1.4301248148413614,-1.7827946892538449
147,-0.7721784079257044,-0.5522257412571275
148,-1.994890138565152,0.8523203351667865
149,-2.038964424110055,0.912273055487547
150,2.2060889773203747,-2.286093901516758
151,-1.263501702609349,1.1352434620220389
152,1.3195766061284293,-1.0513983724182547
153,0.6002477549948957,0.07921439826510523
154,-1.811246885817535,1.1931878662205628
155,0.6522540877131363,-1.2437349595343616
156,-0.28012666009632853,0.7076419505102223
157,2.2384008519066136,-2.14393690626994
158,1.9621849984934614,-1.5625353924323597
159,2.3622820784024436,-1.9303035096764176
160,0.5360441004571326,-0.7439030196845321
161,-1.3732539316437633,1.082394959390977
162,-1.486755792403275,1.234637266612048
163,-0.15491176150209118,0.013668147843768234
164,2.1828143530830237,-2.4273943212573528
165,-1.9562116282537256,2.887137652198885
166,-1.8656741368803633,2.536799313648741
167,-1.6315698639662626,0.05415497613854447
168,-1.6851878786630552,1.0139772025975264
169,-1.1172753990568693,0.07372772174471205
170,-0.47668393938966214,-0.7853536733138617
171,-2.7147352485361007,1.9524737871452482
172,-2.3331246976256397,2.6960776261418755
173,0.4033294064061958,-0.5901903486072554
174,1.1640200256104907,-1.020093528401474
175,0.9117013860455981,-1.4733251003169099
176,0.914198159856573,-0.7260603349106589
177,-0.5239885491399202,0.5199983232974069
178,-1.3769113871284233,0.8912865568773047
179,-2.9552248077525842,1.519209226036196
180,-1.036043792905494,1.9308866388394894
181,1.3369809200325482,-0.5895024196040922
182,1.0685476623784373,-0.2680456946502426
183,1.5684273246484572,-1.9881848812675744
184,1.5569267323046858,-1.3470956494963173
185,-0.158285790785884,0.35679376360394227
186,1.037324671169671,-1.46144691657827
187,1.2067838734308474,-1.0729553923785924
188,-0.5433971366355385,-0.22389131062772816
189,-1.5053278157551901,2.175589181671748
190,-2.406041849692946,2.922244319351833
191,2.0119890949959838,-2.1267603090135054
192,-2.129139532723739,1.9221980559981935
193,0.08248660152908685,1.16643621325306
194,-0.2311636190333506,-0.22636716161657752
195,0.7879243103934859,-0.4493472763677226
196,0.6621339107857315,1.1877447230553924
197,2.14966072606331,-2.4125097475841866
198,-1.8710073732357442,3.48142483240802
199,-1.7382325464679615,1.3554381653130663
200,0.4019571754155989,1.8579299453542029
201,0.9548271503336726,-1.338674209729391
202,-1.5167509577602363,1.0636866487306647
203,-0.8232126710714441,0.2516552628781068
204,2.4112985083988203,-2.0325378307980144
205,-1.8284869565534294,0.2566149258986725
206,1.6090509419856407,-1.4208945722506663
207,1.492364882567437,-1.623246838555002
208,-0.212662982545979,-0.321311197237324
209,2.0543544094918618,-1.8065095529838322
210,1.112634824449018,-0.08017431548623166
211,2.2390856773161727,-1.9117907163434347
212,-2.104883145320312,2.4491441928883297
213,-2.408770007874775,2.7072573070431196
214,-2.2663559495876804,1.1216138293804627
215,-1.9537090889653488,2.1374602121084423
216,0.009368858721501517,-0.40257663164838153
217,-1.7803378449951266,2.258846376955525
218,-1.3859025881017366,0.8901227966280841
219,-2.380424773980868,2.452067791204313
220,-2.1577512814189794,-0.12211549774978732
221,0.5359715594956564,0.24773633128276523
222,-0.1023322886894117,-0.7870136037953032
223,-0.027225932672594287,1.5472225523408412
224,-0.7574898694134785,1.2242849913962925
225,2.310581206360753,-1.7716880096134586
226,1.9234289792324528,-0.8419768201020392
227,1.2121324435462342,-0.7480528066636513
228,-0.15640105513787406,1.0174729846505002
229,-2.1303558715629842,2.4356531968780333
230,0.6891575242392627,0.47714172327613424
231,-2.0905598684353084,0.17393076021714737
232,-0.09117660147106177,0.7580308099187693
233,2.3266704949460433,-1.8261113881625752
234,-1.5301778109808404,0.6369247659755524
235,2.288636885411159,-1.557242572782563
236,0.4576537907004977,-1.2039717545835844
237,1.343597033392528,-0.43455605363831856
238,0.3426320749170729,-0.6771261230679531
239,0.7563443566804422,-1.1549756179177837
240,1.8940912656718023,-2.0746474414617517
241,2.2031985477658576,-2.327527893809834
242,1.8124347022931562,-1.5712614159815743
243,-2.554821180455338,2.942873000488259
244,-1.2415483402205025,1.9105913864594968
245,-1.3468412897275732,1.2575836301213716
246,1.0955522526865833,-1.4652405803834996
247,-2.4228888735466123,2.0789988513941347
248,-1.8289605543077436,1.9095620864337042
249,-1.9765109032995194,1.3405699572841747
250,2.0454514340235206,-1.9166666143374789
251,-1.967229701257479,1.2900954858359308
252,0.5048068118639167,-0.9723482259536166
253,2.390968761035043,-1.994980822207841
254,1.6074065747898632,-1.729067429692665
255,-1.3348374436872794,0.3321487362492051
256,-2.1975259442451387,2.6127350970443026
257,-0.9717615600194549,0.35375892136330894
258,2.0880931888048906,-1.7431662955318685
259,-1.3009243893754705,1.1328028255637719
260,0.4858008473614662,-1.264812833850681
261,-1.9811519487300109,3.109067601892008
262,0.5752989826096735,-0.45700557754358745
263,1.4670597732137856,-1.5755364594371521
264,-1.7229821815303759,1.3730893426027155
265,-2.576862124499627,0.645458407072601
266,-1.0573574502993706,1.9663226643653533
267,0.9735551299767482,-0.5282242580554394
268,-2.2516848472470565,0.8762011460338635
269,1.9546418657845155,-2.5002318685551237
270,-0.9290283819678716,0.11887998282204626
271,-0.007363759394662658,-1.3408295848708842
272,2.208320423919613,-2.0451841484848763
273,0.9974750114271224,-1.0277286610389844
274,1.4546762094306953,-1.4510251613057044
275,-2.3016197673999597,1.1005795183456955
276,0.69933619792776,0.25680906838740486
277,-2.502084098078927,2.8702513185976057
278,2.1578054842247716,-1.8517817791562405
279,0.30491421694415627,-0.5004767153348901
280,0.8749713948967562,-0.8008264230791585
281,-2.457338788499159,1.9957327780685197
282,-2.3092919217760217,2.8138782388608616
283,-1.9787282464828646,0.72235598026558
284,0.4582318906389736,-0.34225010185747123
285,-2.7947470896270605,2.5706850413739826
286,-0.4185177397407768,2.099025136660541
287,-2.391075196762152,1.2146325222544525
288,-1.0631182708162032,1.692687258684439
289,2.360299114163934,-1.8910951622292762
290,-1.1806354807275061,-0.320520367459951
291,1.4930390547083543,-0.2790016336101545
292,-2.009528961378344,2.750300841092168
293,-0.3114309551706049,0.17556160987982555
294,0.05795400131625049,1.9012449091056953
295,-1.3831164778673044,0.06940408118512259
296,-1.7527809961636436,1.557612427081635
297,-0.9552778021406961,1.8749273970387088
298,1.3141214663596683,-0.5962774360435656
299,-1.283287676786869,0.7203745086495624
300,0.90471024278342,-1.3806566535757452
301,0.669457117408586,-1.431198357946619
302,-0.18637448371961693,2.1669689523725135
303,-0.18261305834764638,-0.46217694481697086
304,-1.1263903732748548,1.9385010379750267
305,-0.5941769801942993,-0.9545195697900357
306,-0.8239370832516884,-1.0733112026639453
307,-0.4782092702186712,1.2586979018369737
308,1.3624699631780728,-1.9422292619528565
309,-1.8427898655593133,2.1708631809897043
310,-1.2463652301956207,1.8719468681669138
311,1.2352881042325574,-1.059345901233394
312,0.767653696823437,-0.6711648082224894
313,-1.249423509070869,1.7869117369844274
314,1.3095202095277632,-0.5759182358389958
315,-0.729644426608411,0.5070913611877016
316,1.9727296265840066,-1.7021271679556784
317,2.2188502992125536,-1.7420054736211052
318,0.12470442764842654,0.7674270468026726
319,1.2074962077754747,-0.9833997767764537
320,-0.6564425477251495,1.4713346502193714
321,-0.18158943655625986,0.3734347234230896
322,-2.23059654950285,3.174578446720919
323,-2.6844265217389305,2.688801900573673
324,-0.5195918014017699,0.8890288059622609
325,1.2802588068946341,0.15520623351659232
326,-0.41040378919349224,0.45590283191266895
327,-1.6431959538812648,1.6664543771550182
328,-2.3474234074941083,2.0691238667337575
329,-1.432716616155244,3.238476002947989
330,-0.5940597021066735,-0.5605207855615857
331,-0.0982562058998621,1.6473800225815165
332,2.195945845958782,-1.775250636957619
333,0.769380288530866,0.23139522076673374
334,0.25749354907191124,0.6822120021794787
335,2.411953401001651,-2.0196706129675803
336,-2.1981667981511923,1.7985926329414692
337,-2.786114484396086,1.96169638011953
338,-2.364392458804554,1.6136777638775088
339,0.47573860856916644,-0.32754441963796993
340,1.2116837701985712,-1.9819525685074275
341,1.3069855859237007,-0.7167964503212335
342,1.9561613285322352,-1.5589265781380737
343,1.1235173149222792,-1.8293015871801492
344,-1.3881397266084918,-0.16477769008105603
345,-0.582310012347913,-1.0898840668570113
346,-2.307661973615765,2.137878016370268
347,0.7940079193079667,-1.1771409945205813
348,0.8915574162834029,0.1147090774272391
349,2.356410224652452,-1.7834333994111573
350,-1.9779314765000593,1.288233127628378
351,-0.5170516188157289,-0.6462750413282669
352,-1.2850819997718843,0.031182402749088133
353,-0.36704894498711366,-0.7795328881326211
354,2.3011188152172166,-1.6210572088470665
355,0.5562321736634811,0.4286825013497171
356,0.39365253136409023,-0.7416272631703268
357,-1.164251157204272,2.283761084353003
358,-0.3453324394358157,-0.8951678013267657
359,-1.1485793905183874,1.5299727092227613
360,1.471659822868281,-1.4647815321967903
361,0.8432216438058211,-0.6707575573893625
362,-1.1581947693337538,0.5113401537782818
363,-2.3921340801837467,0.549024321569552
364,-0.7824918358014917,1.2863189523937575
365,-1.8163936985878724,2.1622543834970442
366,-0.08143622307407215,-0.4602163342196725
367,-2.88999643365051,2.4068866436015113
368,2.2431730322625976,-2.7210750314697276
369,2.25891671377883,-1.832139242316255
370,-1.2813138322593658,0.1380895096377463
371,0.8931914485371926,0.6137185146764951
372,0.6195888753631953,-0.8431520562692792
373,1.8369341422709506,-1.7055494604011798
374,1.817651333364404,-1.5244237170272097
375,-0.2608158294403688,2.2132983354831004
376,0.3419048382219971,-1.068772655910346
377,2.2202985675216853,-1.8422373177004865
378,1.6999654887689852,-0.588311994387439
379,-0.8572322628468727,-0.28043808276053295
380,-1.3446062520416704,0.8445135525627747
381,1.6023396943781043,-0.3241495857958467
382,2.2707796553906845,-2.553729148421411
383,1.2608474835675254,-1.5302495605470934
384,1.3426794901165913,-1.1591472768025315
385,2.0518157894262887,-0.5542495224914052
386,2.2974857478525705,-1.6608010239694568
387,-2.109057288123092,2.5668765359036207
388,-2.1208161122079607,2.285414047054898
389,0.047811681651392,0.6976624035539858
390,0.9626604782946495,1.0708979454782783
391,-1.4648398071132152,1.974507708453073
392,0.5196239587829304,-0.6565049458833603
393,0.19616185499913508,-0.7649996363794378
394,1.407628357592131,-0.9114221767827408
395,-0.2851324275327241,-0.035622655694890815
396,-0.10508628842880004,1.4450441888616696
397,1.2718869177895962,-1.1845376020139482
398,-2.991985287254907,3.1347603536827564
399,2.0774660248572587,-2.089930453782284
400,0.122813661116801,1.0488412471057458
401,-2.491495932305405,2.3080586427187915
402,-0.8566845361274865,1.7654819141694393
403,-1.7431736471490682,2.6091231016815883
404,-0.0341429523889854,-1.0222922408211166
405,0.03733736733858086,-0.07325180356837376
406,0.2592154431876849,1.1067768755859442
407,-2.6531489334355984,0.8209821547949882
408,2.063396829815652,-2.0491844557769974
409,-0.12555203771234763,-1.0227103034390126
410,0.547601226938973,1.347051896315034
411,0.5023337083081881,-0.8480478034128685
412,1.3291597318010506,-0.24172435452938057
413,-1.8045383854840282,0.6282803906614254
414,1.1958429837247913,-1.3678732143600263
415,-0.18070572395973974,1.4226766150536971
416,0.6527410806957576,0.3720622687791033
417,1.5675375864871979,-1.4655951458183627
418,-1.2778477264336014,1.8675762768103366
419,2.066253450487799,-2.217623722707068
420,-2.1148850859204327,3.0790401743149265
421,-0.006681349988228265,1.8928737780567544
422,2.2313158405907663,-1.9099903000415845
423,1.0002488348365752,-0.15833600554956836
424,1.7975444864025183,-1.8333715874263932
425,-0.12446683425816578,-0.49916049748885594
426,0.9488836206890674,-0.9631602654112636
427,1.6590407381786572,-2.3222301144927733
428,0.7819796684813536,-0.6983790170990102
429,-1.5082417540499957,1.1932019138067065
430,-2.0961802552152577,2.097637393892173
431,1.2356126663545983,-1.5169696848113157
432,0.23706214068093476,-0.7789560392540968
433,2.3635196861284706,-2.111498923014884
434,0.6883605167123608,-1.3687770024346595
435,1.250906726970251,-1.1611029358703147
436,0.655332021062917,-1.8940262510473345
437,-2.638996667186845,2.5520865808821034
438,-1.3883085947124587,1.8318426093125202
439,2.2836680714487083,-2.435431373340178
440,-1.9581629698416598,-0.002554257010548563
441,0.7665412447186474,-0.013011162815300412
442,2.220218515186678,-1.8596598857325737
443,1.5757458986977886,0.15555109020838007
444,-1.4263453737524197,1.5964442574165527
445,-2.671535855289061,2.624590354371136
446,0.7826965587940206,-1.7630872875568437
447,2.2890993314687,-1.9814832043248312
448,1.3124883196228583,-1.4942968385668798
449,-2.048755496070094,2.595214092593781
450,1.8537336063052732,-0.20868843332885195
451,2.4079127136252905,-1.8772432274271302
452,-2.176205821564385,2.4281304678446385
453,1.0524120687944212,-1.0668102822714687
454,-0.10202331849943805,-0.43647650588767173
455,1.4129841440962903,-0.7492606910188185
456,0.16435044371361576,-0.6067220722778627
457,-0.7109912223638296,0.6908015002550906
458,2.085178274291233,-1.6232159245650322
459,0.5642034312036776,-1.1947244230837697
460,-0.4789397728755733,-0.20962495216758736
461,0.5634456682920693,-0.15884620941217092
462,2.1831697898932867,-2.317721067729805
463,-0.7122181108112289,0.20268310098605796
464,0.531371021226296,-1.6014026988212913
465,-0.4823943522360578,0.29454818481405626
466,2.0500970278713573,-2.0225891216012215
467,2.246199732056882,-2.26191864053064
468,0.8106049086412962,0.6225911131641971
469,-2.2374888806883697,2.347735506817249
470,-2.048013129437836,2.436209965000599
471,-1.9240399776169697,1.600690602230411
472,-1.2690408102978767,1.3397474087875163
473,1.1318367905639273,-0.38442061451153214
474,-0.8515347340802376,1.7245250285405758
475,1.5537016853729906,-0.7902291219903165
476,-0.675980799500097,0.01840373725651167
477,-1.781142984472567,2.492107032698123
478,1.2071342541487344,0.3524528623092743
479,0.295205309031114,0.40330097622325145
480,-0.5455882738096727,0.21029723523066313
481,0.6599058546600163,0.37617227055505525
482,-1.3730267083229861,-0.24317289153905441
483,2.233412619495523,-1.6212758150379443
484,1.430597558537163,0.11423227974307701
485,-0.021871993799346505,-1.821479023269788
486,-1.8670836973411244,2.1874511704939996
487,-2.2606964156527756,1.435392642761512
488,-2.299574031949849,2.104341224155175
489,2.1118727404024185,-1.6029974978591248
490,-1.818312660156338,0.7150633968345724
491,1.779380518341231,-0.2547924739194678
492,-0.26707676050601536,-0.6315411005363702
493,0.0949048168474094,-1.1717953077771526
494,-1.4654912620071074,1.4771859731235466
495,1.706376071477591,-2.7299453143974914
496,-1.2165261242032182,1.2679476030497487
497,1.369616753955463,-1.4491903687375678
498,2.3076678193485622,-1.9115436031629442
499,-0.48131341170180625,0.08271745950661526
500,-1.599649569188851,2.270212042461333
501,2.0140572588185983,-1.782245589790772
502,1.1141374315844395,-1.1111432581798768
503,-2.056372392611342,0.6756407973274782
504,-0.26995562948536633,0.15013062325686144
505,0.10746762260511616,-1.4261196636247304
506,-0.7283291077535374,-0.5253572041586926
507,0.6650267616976114,-1.101130232771383
508,1.20565498379341,-1.515188170325569
509,1.5033439196659786,-1.4315395268282742
510,0.950976463909301,-1.2741426792958443
511,-2.1326813213297453,2.6339593495894937
512,1.1471595449062033,-1.7888596675123631
513,1.1929336717322736,-1.5380666987008662
514,2.0803398811473635,-1.8898610746439257
515,2.3339627776977188,-1.835654883174041
516,-0.3343335539012617,0.1369020343125575
517,0.21862627553441835,-0.6889100655426434
518,-2.1122430264594922,0.09783130071511058
519,-1.2551409728273373,0.8444189402072054
520,-0.38356347915917754,1.5235609536826185
521,2.2754708481744785,-1.5695478298684489
522,1.0802666928313969,0.10374266345904869
523,1.5431772796734042,-0.9171577614227422
524,-0.7157733514437506,-0.5189731610094348
525,0.9441779456509224,0.07295503156478547
526,2.1845726572915085,-1.922577678285699
527,2.359932687034069,-2.318793850462568
528,2.1331443933084318,-1.6208101971829554
529,1.421084743494507,-0.09514275512675943
530,1.5601909578169155,-1.6850220046371334
531,1.7714771262634228,-1.3864567103044931
532,0.20370334313189575,0.513878187886088
533,-0.47731989456224705,-0.288145737541016
534,-1.016660464012511,0.9554322749526293
535,0.9148782343056956,0.465616589099961
536,0.3796105358262961,0.5912589224562838
537,-1.7302218291604368,-0.06750997842313115
538,1.2406740971924857,-0.21263188173343264
539,-0.12927686144910325,0.3418567804950353
540,-0.05187460411248053,0.20184011821579081
541,-0.9196090764514969,1.7364085181967341
542,-2.643108649392782,3.1016319673183834
543,-1.6175963546108632,0.7754534504440143
544,1.280786231481457,0.17984460654568266
545,0.895166661575109,-1.357638504696744
546,1.4526375887126286,-1.3821328924755938
547,0.8924604118866873,0.24092287393888345
548,-1.2868753968915143,0.03311686301919257
549,-2.178697707855833,2.977675936629672
550,-1.898376579747387,2.166228847986845
551,2.0513532068027107,-1.8368248847860134
552,1.8982605314068426,-1.4577686370106444
553,-1.2940392446050721,-0.8845876054304773
554,2.3316520422071556,-1.8432119532888909
555,1.8592315507401393,-1.4721821281831928
556,0.5659732506213598,-0.33108340765878774
557,0.14146066863085355,0.29412628417893166
558,-1.245083317702619,-0.9216797139309433
559,-2.26023694825295,1.1023146909553216
560,-0.7963024518507263,0.425458285855431
561,-2.5218598124325404,2.076942856807428
562,0.6307147627315781,-0.8442722567627408
563,2.0450793878853375,-1.7209586633983982
564,0.30029509910394614,0.007149395373022433
565,1.048950272247478,-1.305232354099608
566,1.9486082306829555,-1.6273341886142163
567,1.6635338627182605,-1.5745306118879432
568,-0.5811121743381078,-0.5967248242333654
569,-1.8264401785345628,1.6876102807318027
570,-2.6206430296419367,1.5692970118218135
571,-0.6146105868413358,-0.22605497788608767
572,0.8709735049663394,-2.0951882427635797
573,2.0366374789868984,-1.3907506035394692
574,2.1283710908449565,-1.9676348847583929
575,-1.7303244932552582,0.1840061862960311
576,0.6413186126353857,-0.5257775096017914
577,0.8165222510056689,0.8707629203652916
578,-1.8478386535850697,2.1971746301760757
579,-0.8155187591416185,-0.23857494750882835
580,0.2369002156263029,0.08463131477213183
581,-2.0080332314707765,2.0115837658585014
582,1.2803781785028852,0.2760388955373237
583,-1.9175953159618324,-0.34585248775145744
584,-1.9719779247909202,1.1294733205715235
585,0.002944895843078729,-0.6163772862928791
586,2.3273773111749416,-2.2564021506060445
587,-0.7802986747731757,-0.6035382668779175
588,1.509868358128193,-0.2928245009647335
589,0.9975582559050529,-1.3088038914901339
590,1.3161383526154193,-1.5899214302669065
591,-0.10259942039071192,-0.9231014954808987
592,1.0492994935456783,-1.058177368444267
593,-1.737299558129364,1.6425758091848528
594,0.38273957448882584,-0.4681501526039824
595,-2.3209675296753667,0.6853257752098509
596,0.0912528506596578,1.2885225140419456
597,-0.8026381880388805,0.4859705975938464
598,1.7277770400983912,-1.5522189628461385
599,-0.12182298926671875,-0.7055578966021814
600,2.0740270886267838,-1.6657638927846103
601,2.1320799297576487,-2.0601022798199446
602,0.6545468305039126,-0.7947345833969051
603,-0.8574615206897491,-0.48261906985884406
604,0.1035943700901157,1.1983406758707051
605,-0.7270291409580746,-0.6890770599551475
606,0.5457420814805003,0.9051204978357711
607,0.962138995427889,-0.05917728436327223
608,2.409307742184504,-1.9393699345276465
609,-1.695653600978726,0.8698956392721453
610,2.2004646913000534,-1.7390085144955418
611,1.9005870476995934,-1.4424938452508578
612,0.7365646957863461,-0.8472717308290761
613,1.3186436824983925,0.6191496614115714
614,0.35921908640570666,0.6785157447020337
615,0.0069215118708895,-0.3534353782450142
616,1.9699230485985986,-1.9266530132353883
617,-1.6000423598404847,0.23858455072098014
618,2.3938053988135937,-1.7859946875107207
619,-0.47403422075436724,1.007726382630981
620,-1.360810136433881,1.720206533594795
621,1.1203785117051894,-0.17271106195423422
622,0.014117955910347887,-0.09029966978123542
623,-2.310367860889787,2.2204757466253695
624,1.3597320731740685,-1.3092103115364113
625,1.9259792614615487,-2.0255590993867627
626,-0.2530464378180229,-0.504209492821246
627,1.8336176088344645,-1.842350559642281
628,-1.0207334760856002,0.6182547589720033
629,-2.3499933128841772,2.2122430096312766
630,2.175394935054856,-2.1331285680949477
631,-1.3936519910535763,1.5323421846362009
632,1.5444287226656508,-1.563828907403692
633,2.163345446823447,-1.1568945753789892
634,1.3320518922840638,-1.2415600355673813
635,0.806912449757176,-1.293701856079927
636,-2.1253065186135305,1.773163437330648
637,-1.590892799275999,1.3631010780213098
638,1.9950054260192407,-1.626450206282106
639,-1.7657881244360443,2.1104104353379554
640,2.4090487687460866,-2.174044509667494
641,1.4992270162392447,-1.3685925246811417
642,-1.3248880518904997,-0.6978115345150636
643,-1.3906380257196151,1.2766279827677829
644,-1.0340436875128896,-0.15811652141387952
645,1.1405078154925066,-0.8394717069721735
646,-2.1984229957480164,2.344977971840933
647,-1.1471095915361005,0.22908310221278314
648,0.42738844072209436,-1.0322907440325806
649,-0.8356547072485734,1.7176664528443284
650,2.165792716384938,-2.313664086862617
651,2.3634004287283266,-1.8430438422217854
652,1.4146213114585209,-0.7807386741236411
653,0.8706097837679084,0.23692817741517605
654,1.1978763293076053,-0.9204556119230936
655,1.9645205147638083,-1.5829339436595937
656,1.1758464959115076,0.380800143444941
657,2.2933374181342234,-1.9574779746146982
658,-2.6250093743020044,3.0436380456655483
659,-2.3244511769865,1.3176386310093287
660,-1.4672070430121231,2.6033759107129653
661,-2.1555837449340154,3.047520884155685
662,0.9600601766063781,-1.2541263329098875
663,0.8350472497777545,-0.9377202346163084
664,0.3513657766394843,0.03030015755916245
665,-2.564521272126579,2.8303774015449283
666,1.5636587493729839,-1.483182202350309
667,-1.5878482680465404,2.3067666481408855
668,-2.173768269634284,1.8693849011735562
669,-0.4801258121629769,-0.5752316263229208
670,-2.3030353413351325,2.8406193335050336
671,-2.0598566723702296,2.9372961051365065
672,2.196050375295668,-2.275181348099801
673,-1.3514635943424493,0.41334661506776726
674,0.020758054660878596,0.23337660962717952
675,-0.7732797436834743,-0.9602164584759987
676,0.7244538513016243,-1.1363844389495659
677,-0.7652765275769354,1.2604878307734602
678,1.1527046813847799,-1.4223711275746476
679,-2.0889421586419243,3.185744846852721
680,1.760850600903677,-1.3283790636405677
681,2.249562946426628,-1.5904023128598153
682,-0.006731712203681188,-0.35501209869914796
683,0.9544035963354157,-0.9136098749287785
684,-2.066189878298904,2.6169070135226233
685,-0.03734411652597988,-0.49423309897643297
686,-0.9974587518086739,1.3009595005209964
687,0.7869845967323434,-0.19728284766250476
688,0.12119337483213165,-1.5782313410503943
689,0.8389078475751337,-0.7755290351081
690,-0.5655635928204014,1.4224756309258237
691,0.3169774289764415,1.4758740089475504
692,0.6062315155372227,-0.08891620084773076
693,0.11732394251718024,0.14741037150097108
694,-0.8410416830725509,1.7552429016394517
695,2.179986190613881,-2.1018637621609897
696,-0.2931532766918433,-0.16394988999030655
697,-0.6055426118957652,0.3175713906341228
698,1.1870342930362565,-0.5403917098672405
699,0.26615494618076546,-0.05004849773464799
700,-0.1973735009279716,1.0570402504588214
701,0.7789699435558767,-0.5416110915671966
702,-1.6807177480026252,1.844543517692414
703,0.5477195684430636,-0.351598494484168
704,-2.6927494544912842,2.5072839598368244
705,1.9441249364959226,-1.5070520241672842
706,0.6336236110695268,-0.7484509259277206
707,-2.2035148392190806,3.139025975283498
708,0.3734128707199788,-0.36332318565688637
709,0.18737944513523025,-0.8204488566754027
710,-2.0673442183835937,3.1209265278396416
711,-1.9039464639927068,1.1324208749595894
712,-1.7233069600647661,1.5999428682045655
713,-0.6355555320005765,1.3721517975212678
714,0.6011521492529305,-1.175551452502101
715,-0.9031481593366213,0.15547038590880286
716,0.9004788149622759,-0.7659922003575861
717,1.2666811257023727,-1.4954402101047652
718,0.6211622765189472,-0.0401406004939375
719,1.1000898636622503,-0.7659655935022949
720,-2.5521224304859755,2.8655595134625975
721,0.18852330827075622,-1.2184379471902789
722,1.2248831658512487,-1.1776518739752229
723,-1.3146733597928029,2.2317279655195605
724,-1.6904410628425497,-0.022534964262695904
725,-1.6034164643202808,0.9723341844388222
726,-1.5552104808070963,-0.5306139977366893
727,1.4808340271226936,-1.5727143976501743
728,-0.9447023999989985,-0.5219097357683746
729,-1.0299874241535913,0.04365530810278437
730,2.0232278061740305,-1.9389970921183342
731,-1.794349984621188,2.6982602306253693
732,-1.753013363078901,1.0295986857547887
733,0.2805039313076957,-0.13546804586486957
734,2.0671496838769494,-1.4983017032352126
735,0.8013901598469974,1.0696755145592474
736,1.455385773415548,-1.6153858857848944
737,1.526306138159021,-1.7879701360398856
738,-0.08869560692173617,-1.0095243311781585
739,1.373705523828087,-1.2938976493962402
740,-2.3504053162697938,2.104469328417167
741,0.14957998860967886,-0.7315813352050372
742,1.5927303433690883,-0.9493401136417224
743,2.292118135088506,-1.8731975838133954
744,-0.44576888441256374,-0.728955571453649
745,-2.5721598229717184,3.015879247505168
746,-2.144294057774113,2.177809279324384
747,-1.6577048071828986,1.3736435224901888
748,-0.7562221149380317,-0.12290432368218734
749,1.2768300828429087,-0.46028256454429306
750,-1.317396413094411,1.5693473581871673
751,-2.0289339769054386,0.34703249240153355
752,1.305530337666657,-1.4139062840141405
753,2.044884098552643,-1.053516138773091
754,0.3218436373746971,0.8228168179254387
755,-0.22312353189401793,0.8940011234245739
756,-0.5764410793686862,1.20574335257354
757,-2.2254842916713216,2.004230898142972
758,-2.3124407892866152,0.26203959268693616
759,1.2544512393418237,-1.1763374304236212
760,0.11540606692838255,0.4487658828084681
761,2.0677607228904424,-1.6471365424172513
762,0.7067271604534044,-0.9777072521224662
763,1.4453838214979908,-1.9672732401934678
764,-2.007822088705985,0.8717293383405194
765,0.7003222530793035,-0.7600024551503928
766,1.2360455723691768,0.4791631732280849
767,-2.157604102439247,0.1425576541553363
768,2.18582705750255,-1.93638677372559
