instances,instance_hardness
1,0.28221587441088913
2,0.08538491415993277
3,0.4109752501241406
4,0.06630074552760412
5,0.20715885243192822
6,0.14649946190946506
7,0.9235818802690112
8,0.5982594629475796
9,0.3291269627259792
10,0.8747737984651454
11,0.22116870601534477
12,0.13065891627801773
13,0.5515738066991527
14,0.42398520444992327
15,0.3519113755581692
16,0.6109458238835794
17,0.6308878321828051
18,0.73605409073474
19,0.2585082839221806
20,0.7129260609363106
21,0.38377309455059005
22,0.32659551127928965
23,0.10221298629707376
24,0.7079705998616888
25,0.4255212875501607
26,0.6248644709192365
27,0.33366619953876053
28,0.06580225924392513
29,0.4291094938030604
30,0.3099272027218579
31,0.3942215617529956
32,0.3470471464106625
33,0.07449349618551404
34,0.06386951863049806
35,0.48533503096118635
36,0.23589144176472243
37,0.7072653895255403
38,0.6036402191077097
39,0.864522977446671
40,0.5256594472570397
41,0.7455235992202949
42,0.7442563978014161
43,0.14163716241340907
44,0.2182101744943371
45,0.6784132315891813
46,0.14650521535822214
47,0.4785534205413793
48,0.06437513467882316
49,0.6445402053472382
50,0.18371671352292074
51,0.06687365472792073
52,0.09766559694114862
53,0.07946669803835649
54,0.15748501039274254
55,0.7417959271786455
56,0.06615192014366833
57,0.1587219948500075
58,0.483636304063062
59,0.7405778582482192
60,0.16508233250035698
61,0.07443600965622543
62,0.5274259952974789
63,0.06935871675869398
64,0.25232553622639586
65,0.5949492952404536
66,0.15532111574059604
67,0.7317738959717279
68,0.4983470834788768
69,0.06383150856479014
70,0.3235040548811591
71,0.8622385412235877
72,0.35927171700051785
73,0.348559910222932
74,0.25649545628623704
75,0.07665814534532833
76,0.0696519988778963
77,0.11251989544492158
78,0.15837951999520694
79,0.35503557465859803
80,0.09805450281684203
81,0.10524957769975862
82,0.074214434481777
83,0.21172606542801586
84,0.06984411463786822
85,0.42191999730127516
86,0.23247919203612843
87,0.44820461836363634
88,0.17694771571487322
89,0.34280103923774463
90,0.08817773733633205
91,0.062336624439055965
92,0.33803711862885566
93,0.28502346072467455
94,0.8065862742155292
95,0.1821830267781731
96,0.5292664602438429
97,0.09517926036821522
98,0.06037771971916828
99,0.10782487371612992
100,0.43575005955560786
101,0.1993363154754082
102,0.29490900026480205
103,0.11394214545752313
104,0.06278596619065402
105,0.19714348686702954
106,0.21862833165936668
107,0.08261946183051128
108,0.45286440102912595
109,0.10873131224691734
110,0.9040399011713054
111,0.45805509278707546
112,0.31020996172019155
113,0.10213107825142465
114,0.11131130498625541
115,0.24207439310731738
116,0.4296166237187976
117,0.6225080086985811
118,0.15613012121849723
119,0.1033325879452136
120,0.06896801479121228
121,0.1654484067825548
122,0.25778565595581515
123,0.15614442925016758
124,0.25572543846427764
125,0.8568308221905945
126,0.6887895427107584
127,0.40534350470598834
128,0.16656004196817642
129,0.7264174948256094
130,0.7764718013966134
131,0.30211539104573515
132,0.3478173129989922
133,0.24034810781403504
134,0.2048163258501079
135,0.07802821683453254
136,0.39459202940267346
137,0.10727666789301171
138,0.08338764197097637
139,0.4210339620474596
140,0.19309645417035215
141,0.1423611836003552
142,0.2625256771542216
143,0.13411742361082946
144,0.5951522053043001
145,0.4291917465073748
146,0.07362835453886396
147,0.12554769096124063
148,0.43433402962445056
149,0.5779981024485259
150,0.07170558255804527
151,0.3403889977533613
152,0.14102306310274804
153,0.1820905695242916
154,0.38130397873788713
155,0.16294876724404905
156,0.27748933071973836
157,0.08316899603481875
158,0.10886718207903778
159,0.07076415698048988
160,0.11746545136961739
161,0.4276367506629666
162,0.2400863572357017
163,0.2003402706183477
164,0.09749974565789665
165,0.6161984385489292
166,0.7476134898546605
167,0.368098599296787
168,0.42027188563804607
169,0.2709614354257598
170,0.15614809951645237
171,0.8373193916916675
172,0.5112313470072409
173,0.18658695273573633
174,0.20095192294458042
175,0.08715556614640718
176,0.1437821784416513
177,0.15245743448922577
178,0.4066576382202075
179,0.7123131987467173
180,0.4175182217322797
181,0.06940677597525247
182,0.25899114306985416
183,0.06829043010040026
184,0.07912409807776732
185,0.3918750684547486
186,0.13341076417920872
187,0.18651811617531144
188,0.4771770373021307
189,0.6914961853580435
190,0.648222240732439
191,0.08907307709197054
192,0.47970680489214557
193,0.2577915902057374
194,0.15608789704934
195,0.10468406033547284
196,0.31568793373017
197,0.08296741081723513
198,0.9041156684768554
199,0.6432722699585149
200,0.6780831126207392
201,0.23697618172961343
202,0.41776219488734434
203,0.25590963549864054
204,0.06745004540679422
205,0.3607594723345776
206,0.11274619704537203
207,0.13249970039243997
208,0.3058018171629635
209,0.09658997802240543
210,0.14292297777417873
211,0.07314720100043759
212,0.6235825988563286
213,0.7784403904219317
214,0.533753914479935
215,0.6359135198361797
216,0.21085109344337172
217,0.7665397258607224
218,0.3807769949423828
219,0.8544185287664157
220,0.5482385052766321
221,0.2552506082306951
222,0.35646446833474077
223,0.323388807862686
224,0.5208324194872532
225,0.08322282620757748
226,0.09710262056980601
227,0.15819611611345197
228,0.2646484600367599
229,0.8720350655725958
230,0.2555003883325886
231,0.3379728219200304
232,0.385590703224001
233,0.06440125996172297
234,0.3125121008911529
235,0.0664833964192919
236,0.1461455847802574
237,0.14982990391029694
238,0.17846658065055188
239,0.1674866452990902
240,0.07918578968842005
241,0.0816832584035686
242,0.10105008826902817
243,0.7622145751599398
244,0.623671426002983
245,0.5860260787870485
246,0.13483649566211442
247,0.4954667836810561
248,0.5712068383205815
249,0.5252571955670029
250,0.10459376661245268
251,0.4776807283608111
252,0.21108996788971568
253,0.06953003537618574
254,0.09352204217241933
255,0.637346262830429
256,0.7747554342747943
257,0.28511927086406585
258,0.1253642320695718
259,0.6141140437476726
260,0.1583211173713185
261,0.8163554851639917
262,0.35024445677615146
263,0.15226042222696623
264,0.3594534191755915
265,0.6336130537486391
266,0.31655933126327407
267,0.2757548047907722
268,0.6200348699094698
269,0.07956568518302698
270,0.5875948787909653
271,0.37751300717813574
272,0.08873044824465948
273,0.15900774031612164
274,0.08069135439535802
275,0.46090285544902165
276,0.2438923367092748
277,0.8504422414262942
278,0.10054299590565807
279,0.20009957344005025
280,0.11124609880798209
281,0.464048584864039
282,0.5723453428058922
283,0.4448833821875574
284,0.35503897999801004
285,0.8602898773180614
286,0.40696561565887
287,0.7717429817560293
288,0.6478866474977004
289,0.07815479599747865
290,0.25714547002807064
291,0.12075845941966112
292,0.8022637192889169
293,0.40374466812625076
294,0.6610092440182664
295,0.3777241533072103
296,0.658305708102702
297,0.6791464858214515
298,0.2032887556391889
299,0.5877646485754181
300,0.24382319138660857
301,0.16810437696617075
302,0.6018140341255362
303,0.11173933891461196
304,0.4981591578891783
305,0.24606869846602542
306,0.26774284826726347
307,0.35571738833183586
308,0.12497831201955734
309,0.6831736310039254
310,0.699915343955454
311,0.0968326991928411
312,0.1722900565583818
313,0.6926855066858444
314,0.19412670248434383
315,0.39553462830377795
316,0.1734866623794391
317,0.07064225735372376
318,0.23581563983818277
319,0.19494377010739805
320,0.47215705212399006
321,0.36789492127963985
322,0.8701151624884839
323,0.7676031347546151
324,0.417753160439547
325,0.17564928942752278
326,0.37837423618046284
327,0.6407993517246121
328,0.8588741855452697
329,0.854303261035628
330,0.2731924870191149
331,0.35645039142664636
332,0.09372134385876074
333,0.17654002449145934
334,0.18459671425062174
335,0.06723858938140626
336,0.7669877691413728
337,0.5585066421790533
338,0.6609456381310772
339,0.2369858238633722
340,0.11869814669299072
341,0.1356086846811395
342,0.1243478139189027
343,0.11116720506530864
344,0.33841475505842855
345,0.3749560312268604
346,0.5794201453980251
347,0.3262308056705353
348,0.20699197090314447
349,0.0733719822580099
350,0.86751771146932
351,0.1785975655476153
352,0.3189928183937961
353,0.1284811160022178
354,0.08064777782611532
355,0.20447799160166347
356,0.24115164843302972
357,0.6878080481916575
358,0.1746635497524126
359,0.31998836764408223
360,0.14685085387157537
361,0.19112757887227172
362,0.5834607107877254
363,0.2835027851569082
364,0.3421252563012107
365,0.5434394635784605
366,0.21932614635376368
367,0.6880653852299811
368,0.06641737819200988
369,0.06821517175376213
370,0.6766029381153371
371,0.14151407073689837
372,0.1400567989692718
373,0.10613539829827223
374,0.155073402179998
375,0.4859214994380999
376,0.3108049271088409
377,0.07096264552609355
378,0.11056910177713353
379,0.23828324905816922
380,0.3691722381455218
381,0.14584953541031376
382,0.06526703495269892
383,0.12116922775066319
384,0.09313373541024283
385,0.1043743547930801
386,0.10882284849134738
387,0.5601845308957414
388,0.665541290689736
389,0.4156509930850336
390,0.2940878521980723
391,0.2571604962977906
392,0.15562668061906804
393,0.11817649048085532
394,0.13946620703094303
395,0.2810569788750439
396,0.32305058506159035
397,0.12245576156807692
398,0.7747357159922605
399,0.06948071320758475
400,0.29362519074066606
401,0.8602954734967486
402,0.30997697405370717
403,0.5951825706631435
404,0.15434384573319315
405,0.27087477598514587
406,0.4581590254779462
407,0.685388955721683
408,0.08168953929707867
409,0.32645369310399364
410,0.385151661306777
411,0.30485239553169263
412,0.20855253499931647
413,0.5531984445189122
414,0.1619837791266877
415,0.668819682212002
416,0.4129125994323313
417,0.11414506445335248
418,0.36617214731826964
419,0.06737903581321703
420,0.8436556585782019
421,0.3991295082270736
422,0.07441289383435346
423,0.15945031317903957
424,0.15467517467258474
425,0.23838542191324275
426,0.2518918937881448
427,0.07766472143131287
428,0.24741462710737738
429,0.38342815927244334
430,0.8371296118960843
431,0.1253778752079433
432,0.12756247717412506
433,0.07009748476138777
434,0.19313186119170445
435,0.11073965444901357
436,0.2546773349677157
437,0.653357411312856
438,0.47320282939786595
439,0.06072500715663376
440,0.4572625631797639
441,0.22666780048461055
442,0.08348998676712882
443,0.1624397178151039
444,0.47686708808544875
445,0.7504095919246259
446,0.11333487643214502
447,0.09828046413327995
448,0.10768835211232797
449,0.8694515212237716
450,0.13917461183852609
451,0.06688091256346418
452,0.7403290096473332
453,0.16065908285064068
454,0.28793510177753046
455,0.147759031583933
456,0.2852022127165983
457,0.37596244790992905
458,0.08840531211187153
459,0.19720949560162593
460,0.3817163416764042
461,0.22000366376632696
462,0.059212191234308764
463,0.2024327139779344
464,0.1302072016151833
465,0.3734156337720189
466,0.12879612100201276
467,0.06675802045698076
468,0.2145153041296357
469,0.45565764680661347
470,0.7777535797168188
471,0.6391127209041765
472,0.3732053843675359
473,0.24422471554336922
474,0.42249503844837843
475,0.17201267443667123
476,0.2900368129600053
477,0.8151530680324611
478,0.18573615837796598
479,0.2686959430428597
480,0.35125837350971556
481,0.41640033968986845
482,0.22601366830019154
483,0.08452036062813839
484,0.0895563644278673
485,0.2148728268482859
486,0.6310818207534983
487,0.4180891305561195
488,0.9009827354691441
489,0.09530503883446717
490,0.748610426490713
491,0.12455306272764177
492,0.11714696175282713
493,0.17928212456606862
494,0.5139859017342359
495,0.07355543182229674
496,0.5204722081429668
497,0.13804189225884755
498,0.08987752475016686
499,0.387440406108289
500,0.6577761936349795
501,0.08874176943217071
502,0.11431132112552655
503,0.806123544797161
504,0.2805144809316169
505,0.17725547913001527
506,0.15119433391441328
507,0.2460127530455476
508,0.21025885453988902
509,0.15418307290235767
510,0.21701334882337964
511,0.8391709725478953
512,0.12778956769149896
513,0.11070098792827654
514,0.0879261707011294
515,0.08178262448473039
516,0.4144197175794706
517,0.2631828055424388
518,0.5266785848416826
519,0.24385097331104166
520,0.2543894505759129
521,0.06321182640988321
522,0.18713327811444858
523,0.11572921618094811
524,0.3300667097067903
525,0.21773231837766238
526,0.06812535740883019
527,0.05991564752535228
528,0.10753160254353389
529,0.14244555100061373
530,0.12716121832128813
531,0.1871991363082257
532,0.3253395225663077
533,0.32737783582971836
534,0.26335444996999746
535,0.18181211432834465
536,0.4444448226967883
537,0.1654254871505798
538,0.10797912250462338
539,0.33069911544190367
540,0.482176686517363
541,0.4927240925661518
542,0.7157709458007757
543,0.6380501081304246
544,0.14975774773823902
545,0.09722078716631155
546,0.1408804906306681
547,0.12652432937291191
548,0.39261715135678565
549,0.6879718055968844
550,0.6919276319475773
551,0.11720240604920173
552,0.09619614586506864
553,0.2802414801314632
554,0.07999498152660345
555,0.12110269662703443
556,0.237843389601618
557,0.20467399320349
558,0.2956186913737209
559,0.5789902859897114
560,0.23533459374728216
561,0.6330947639795911
562,0.18898249895157648
563,0.1019457643196704
564,0.15832983299492687
565,0.11248753087977448
566,0.09844095820700316
567,0.16217352090677295
568,0.1676438792436119
569,0.5721086347528683
570,0.7502727928106434
571,0.1203660686546777
572,0.11826084692540795
573,0.15269492118996542
574,0.11534770283351281
575,0.3400298417211124
576,0.240344442722783
577,0.18223810464815005
578,0.6912855251675747
579,0.37269436646275056
580,0.24189787845356658
581,0.584455657973032
582,0.1227532714271573
583,0.3450276192714864
584,0.29829663387706773
585,0.5380031652595811
586,0.06807025375250997
587,0.3805351491786161
588,0.1242942666329856
589,0.16959981731610152
590,0.07664330203788183
591,0.23762267911498292
592,0.16714665575573007
593,0.4747206490553497
594,0.16579374338623643
595,0.5418817176897011
596,0.3624961912029323
597,0.14129217196727506
598,0.1035890340445399
599,0.2849238634992344
600,0.09231568252920641
601,0.09642376455022761
602,0.15246978937712918
603,0.19525687399547498
604,0.30746711425011863
605,0.3516963427248725
606,0.24501476151287316
607,0.20567375409742794
608,0.06431888657994955
609,0.3860441758885983
610,0.07306502780458746
611,0.15171406310170799
612,0.21761767471265436
613,0.17874832787537775
614,0.2932089534212571
615,0.2867232219624135
616,0.10157224983816049
617,0.2590275098740652
618,0.062417340328465354
619,0.42862052882178103
620,0.6874331549416451
621,0.22650572734531826
622,0.19615699606234527
623,0.8838945904672655
624,0.16576091479087363
625,0.13685413663207757
626,0.18550577957278702
627,0.1211776163756757
628,0.317282729369294
629,0.44631055956195487
630,0.0734275313349162
631,0.6640681155050054
632,0.10932726552653782
633,0.11521988562948171
634,0.12669006983549946
635,0.14823379616681798
636,0.6067778527635219
637,0.250659849235632
638,0.1073161904957427
639,0.5802804210117292
640,0.06739572950834494
641,0.11385074000069018
642,0.37167656755411294
643,0.5488556397433833
644,0.19228180747917833
645,0.13531281803334694
646,0.6057263838368272
647,0.5972293034962076
648,0.2615531127977303
649,0.5580715356466797
650,0.0962150718529392
651,0.07292105906552437
652,0.1916722980529988
653,0.24619210332121055
654,0.1842129240573429
655,0.1117217213756414
656,0.42775160187936634
657,0.0771607619400092
658,0.6692769974620623
659,0.5437284909068684
660,0.8568092232733439
661,0.7010235457505227
662,0.14437932394300756
663,0.3222979231951486
664,0.21046446250336215
665,0.6356974541038329
666,0.13670646697396194
667,0.5960355432880394
668,0.6889102314325384
669,0.29020836146587303
670,0.6553532837554519
671,0.8243895194905076
672,0.08438195013295391
673,0.1577635072303727
674,0.6815402613422175
675,0.3013609177012526
676,0.21865172384109077
677,0.5830932228961377
678,0.1410139444196009
679,0.751348893345197
680,0.07719860548015922
681,0.05522465635523466
682,0.24025459091285062
683,0.21861422347111648
684,0.7308978657910934
685,0.1967257820705145
686,0.3660566081949499
687,0.16375314167160349
688,0.154720789501685
689,0.17126068675312678
690,0.3804944312407773
691,0.2887471739919575
692,0.19128117082522023
693,0.3635297141915447
694,0.5125865803974534
695,0.06823540637088532
696,0.6244235696688276
697,0.4055759763262363
698,0.11353074639716143
699,0.31491621897596733
700,0.45153568890486073
701,0.2259694717636087
702,0.6926730515753807
703,0.2072544701200435
704,0.7050960171825313
705,0.10042206743365356
706,0.13601859331562616
707,0.8349312940835972
708,0.2203241972500143
709,0.2495818319337868
710,0.8747550551444815
711,0.4727394921630096
712,0.3692623418598572
713,0.3881335768762626
714,0.166170132862415
715,0.1882203624758232
716,0.15775057038732465
717,0.1898510699194349
718,0.1566223272089402
719,0.16036782143338257
720,0.792806586813088
721,0.12131537733861353
722,0.17546592151350338
723,0.5795923532474604
724,0.3361237488729507
725,0.2827118500507806
726,0.350980953527501
727,0.18072660144098074
728,0.31009363556676783
729,0.4532726825370593
730,0.09145981465653774
731,0.7662333741667008
732,0.7980358561152411
733,0.18728632088056762
734,0.11569544616185068
735,0.13460456170338952
736,0.14575279429422894
737,0.12458578128477882
738,0.175360073802454
739,0.16053626798895615
740,0.7685794685570669
741,0.26494558784814914
742,0.1655855383992556
743,0.09383525869296572
744,0.29810100170016873
745,0.8218756625971717
746,0.38547822429240597
747,0.39906852570576723
748,0.44292318565435906
749,0.14946324470111816
750,0.5133778107160734
751,0.49968825058404975
752,0.20956322016271578
753,0.10026923669155097
754,0.4138608142823753
755,0.35827863973187235
756,0.4763903773964264
757,0.5177189094127981
758,0.6321666019726486
759,0.13876306954436401
760,0.3016111674986316
761,0.10479513223066927
762,0.1055613262395576
763,0.10275322334637238
764,0.3302703718805593
765,0.2792640222105657
766,0.16494003333089913
767,0.6688234395975687
768,0.09347384137410208
