Row,z_1,z_2
0,-1.6305692525008793,0.48826957714393066
1,-1.5243606609179763,0.6105960715250799
2,-1.930667148992502,0.6113329250136312
3,,
4,-1.4880625814458917,-1.421757752929591
5,-1.395229526702184,-1.690329250474898
6,-1.4620177862860886,-1.364384903099648
